     =============================================
         Results from Corg-mass conservation check
 Flux in (fg0+fg1+fg2) :         0.0000000000
 Flux through reac     :         0.0000000000
 O2-POC-flux           :         0.0000000000
 NO-POC-flux           :         0.0000000000
 Mn-POC-flux           :         0.0000000000
 Fe-POC-flux           :         0.0000000000
 SO-POC-flux           :         0.0000000000
 CH-POC-flux           :         0.0000000000
 Corgrate              :         0.0000000000
     =============================================
   Definition of the fluxes: out of sediment (-) into it (+)
    Units: [umol/cm**2/a]
   Flux O2         :      112.8985212130
   Flux O2 Theory  :       18.3844885644
   Flux NO3        :       27.7886148324
   Flux SO4        :     2633.2954910148
   Flux PO4        :       -0.1149646947
   Flux PO4 Theory :        0.0000000000
   Flux NH4        :       -7.4137230755
   Flux MnII       :     -838.9695802238
   Flux FeII       :   -10979.8795250956
   Flux CH4        :       -0.0000000000
     =============================================
     Fluxes at the bottom:                        
   Flux O2         :       -0.0000476729
   Flux NO3        :       -0.0002503930
   Flux SO4        :       -0.2134697567
   Flux PO4        :       -0.0000002979
   Flux NH4        :       -0.0002916319
   Flux MnII       :       -0.0000645285
   Flux FeII       :        0.0003922650
   Flux CH4        :        0.0000000000
     =============================================
         Vertical integrated secondary redox-rates
 RNHOX                 :         0.0042099509
 RSOX                  :         0.0000000000
 RMNOX                 :         0.0000000000
 RFEOX                 :        18.3844885644
 RMNFE                 :       797.2020214817
 RFENO3                :         0.0000000000
 RMNO2TS               :         0.0000000000
 RCH4OX                :         0.0000000000
 RCH4SO4               :         0.0000000000
 RNO3TS                :         0.0000000000
 RTSFE3                :         0.0000000000
 RFESOX                :        53.3127661004
 RFESFE3               :         0.0000000000
 RFESMN4               :         0.0000000000
 RMnNO3                :         0.0000000000
     =============================================
             Vertical integrated equilibrium rates
  RDCO2                :         0.0000000000
  RDHCO3               :         0.0000000000
  RDCO3                :         0.0000000000
     =============================================
