time,Volume,Tot Inflow Vol,Tot Outflow Vol,Overflow Vol,Evapouration,Rain,Lake Level,Surface Area,Black Ice,Snow,White Ice,Max Temp,Min Temp,Surface Temp,Daily Qsw,Daily Qe,Daily Qh,Daily Qlw,Light,LakeNumber,Max dT/dz
1998-01-02 00:00:00, 7200.597735,    0.000000,    0.000000,    0.000000,   -2.857728,    0.000000,   18.494434,    0.513396,    0.000000,    0.000000,    0.000000,   19.227872,   19.227872,-9999.000000,-9999.000000,-9999.000000,-9999.000000,-9999.000000,   63.094164,    0.000000,    0.168868
1998-01-03 00:00:00, 7198.101804,    0.000000,    0.000000,    0.000000,   -2.394316,    0.000000,   18.489770,    0.513295,    0.000000,    0.000000,    0.000000,   18.639305,   18.639305,-9999.000000,-9999.000000,-9999.000000,-9999.000000,-9999.000000,   18.629567,    0.000000,    0.168810
